{
  "name": "todo-app",
  "$schema": "../../../node_modules/nx/schemas/project-schema.json",
  "projectType": "application",
  "prefix": "angular-examples",
  "sourceRoot": "apps/todo/app/src",
  "tags": ["scope:todo", "type:app"],
  "targets": {
    "build": {
      "executor": "@angular-devkit/build-angular:browser",
      "outputs": ["{options.outputPath}"],
      "options": {
        "outputPath": "dist/apps/todo/app",
        "index": "apps/todo/app/src/index.html",
        "main": "apps/todo/app/src/main.ts",
        "polyfills": ["zone.js"],
        "tsConfig": "apps/todo/app/tsconfig.app.json",
        "assets": ["apps/todo/app/src/favicon.ico", "apps/todo/app/src/assets"],
        "styles": ["apps/todo/app/src/styles.scss"],
        "scripts": []
      },
      "configurations": {
        "production": {
          "budgets": [
            {
              "type": "initial",
              "maximumWarning": "500kb",
              "maximumError": "1mb"
            },
            {
              "type": "anyComponentStyle",
              "maximumWarning": "2kb",
              "maximumError": "4kb"
            }
          ],
          "outputHashing": "all"
        },
        "development": {
          "buildOptimizer": false,
          "optimization": false,
          "vendorChunk": true,
          "extractLicenses": false,
          "sourceMap": true,
          "namedChunks": true
        }
      },
      "defaultConfiguration": "production"
    },
    "serve": {
      "executor": "@angular-devkit/build-angular:dev-server",
      "configurations": {
        "production": {
          "browserTarget": "todo-app:build:production"
        },
        "development": {
          "browserTarget": "todo-app:build:development"
        }
      },
      "defaultConfiguration": "development"
    },
    "extract-i18n": {
      "executor": "@angular-devkit/build-angular:extract-i18n",
      "options": {
        "browserTarget": "todo-app:build"
      }
    },
    "lint": {
      "executor": "@nx/linter:eslint",
      "outputs": ["{options.outputFile}"],
      "options": {
        "lintFilePatterns": ["apps/todo/app/**/*.ts", "apps/todo/app/**/*.html"]
      }
    },
    "test": {
      "executor": "@nx/jest:jest",
      "outputs": ["{workspaceRoot}/coverage/{projectRoot}"],
      "options": {
        "jestConfig": "apps/todo/app/jest.config.ts",
        "passWithNoTests": true
      },
      "configurations": {
        "ci": {
          "ci": true,
          "codeCoverage": true
        }
      }
    },
    "serve-static": {
      "executor": "@nx/web:file-server",
      "options": {
        "buildTarget": "todo-app:build"
      }
    }
  }
}
